<?xml version="1.0" encoding="UTF-8"?>
<testsuite xmlns:xsi="http://www.w3.org/2001/XMLSchema-instance" xsi:noNamespaceSchemaLocation="https://maven.apache.org/surefire/maven-surefire-plugin/xsd/surefire-test-report.xsd" name="TestSuite" time="47.998" tests="204" errors="0" skipped="0" failures="1">
  <properties>
    <property name="sun.desktop" value="windows"/>
    <property name="awt.toolkit" value="sun.awt.windows.WToolkit"/>
    <property name="file.encoding.pkg" value="sun.io"/>
    <property name="java.specification.version" value="1.8"/>
    <property name="sun.cpu.isalist" value="amd64"/>
    <property name="sun.jnu.encoding" value="Cp1252"/>
    <property name="java.class.path" value="D:\Varun_WorkSpace\Remittance_CIBC_Testsuite\target\test-classes;D:\Varun_WorkSpace\Remittance_CIBC_Testsuite\target\classes;C:\Users\varun.paranganath\.m2\repository\com\codoid\products\fillo\1.18\fillo-1.18.jar;C:\Users\varun.paranganath\.m2\repository\org\apache\poi\poi\3.17\poi-3.17.jar;C:\Users\varun.paranganath\.m2\repository\commons-codec\commons-codec\1.10\commons-codec-1.10.jar;C:\Users\varun.paranganath\.m2\repository\org\apache\commons\commons-collections4\4.1\commons-collections4-4.1.jar;C:\Users\varun.paranganath\.m2\repository\com\oracle\ojdbc14\10.2.0.1.0\ojdbc14-10.2.0.1.0.jar;C:\Users\varun.paranganath\.m2\repository\org\testng\testng\6.9.10\testng-6.9.10.jar;C:\Users\varun.paranganath\.m2\repository\com\beust\jcommander\1.48\jcommander-1.48.jar;C:\Users\varun.paranganath\.m2\repository\org\beanshell\bsh\2.0b4\bsh-2.0b4.jar;C:\Users\varun.paranganath\.m2\repository\org\json\json\20080701\json-20080701.jar;C:\Users\varun.paranganath\.m2\repository\io\rest-assured\rest-assured\3.1.1\rest-assured-3.1.1.jar;C:\Users\varun.paranganath\.m2\repository\org\codehaus\groovy\groovy\2.4.12\groovy-2.4.12.jar;C:\Users\varun.paranganath\.m2\repository\org\codehaus\groovy\groovy-xml\2.4.12\groovy-xml-2.4.12.jar;C:\Users\varun.paranganath\.m2\repository\org\apache\httpcomponents\httpclient\4.5.3\httpclient-4.5.3.jar;C:\Users\varun.paranganath\.m2\repository\org\apache\httpcomponents\httpmime\4.5.1\httpmime-4.5.1.jar;C:\Users\varun.paranganath\.m2\repository\org\hamcrest\hamcrest-core\1.3\hamcrest-core-1.3.jar;C:\Users\varun.paranganath\.m2\repository\org\hamcrest\hamcrest-library\1.3\hamcrest-library-1.3.jar;C:\Users\varun.paranganath\.m2\repository\org\ccil\cowan\tagsoup\tagsoup\1.2.1\tagsoup-1.2.1.jar;C:\Users\varun.paranganath\.m2\repository\io\rest-assured\json-path\3.1.1\json-path-3.1.1.jar;C:\Users\varun.paranganath\.m2\repository\org\codehaus\groovy\groovy-json\2.4.12\groovy-json-2.4.12.jar;C:\Users\varun.paranganath\.m2\repository\io\rest-assured\rest-assured-common\3.1.1\rest-assured-common-3.1.1.jar;C:\Users\varun.paranganath\.m2\repository\io\rest-assured\xml-path\3.1.1\xml-path-3.1.1.jar;C:\Users\varun.paranganath\.m2\repository\org\apache\commons\commons-lang3\3.4\commons-lang3-3.4.jar;C:\Users\varun.paranganath\.m2\repository\javax\xml\bind\jaxb-api\2.2.12\jaxb-api-2.2.12.jar;C:\Users\varun.paranganath\.m2\repository\org\seleniumhq\selenium\selenium-java\3.11.0\selenium-java-3.11.0.jar;C:\Users\varun.paranganath\.m2\repository\org\seleniumhq\selenium\selenium-api\3.11.0\selenium-api-3.11.0.jar;C:\Users\varun.paranganath\.m2\repository\org\seleniumhq\selenium\selenium-chrome-driver\3.11.0\selenium-chrome-driver-3.11.0.jar;C:\Users\varun.paranganath\.m2\repository\org\seleniumhq\selenium\selenium-edge-driver\3.11.0\selenium-edge-driver-3.11.0.jar;C:\Users\varun.paranganath\.m2\repository\org\seleniumhq\selenium\selenium-firefox-driver\3.11.0\selenium-firefox-driver-3.11.0.jar;C:\Users\varun.paranganath\.m2\repository\org\seleniumhq\selenium\selenium-ie-driver\3.11.0\selenium-ie-driver-3.11.0.jar;C:\Users\varun.paranganath\.m2\repository\org\seleniumhq\selenium\selenium-opera-driver\3.11.0\selenium-opera-driver-3.11.0.jar;C:\Users\varun.paranganath\.m2\repository\org\seleniumhq\selenium\selenium-remote-driver\3.11.0\selenium-remote-driver-3.11.0.jar;C:\Users\varun.paranganath\.m2\repository\org\seleniumhq\selenium\selenium-safari-driver\3.11.0\selenium-safari-driver-3.11.0.jar;C:\Users\varun.paranganath\.m2\repository\org\seleniumhq\selenium\selenium-support\3.11.0\selenium-support-3.11.0.jar;C:\Users\varun.paranganath\.m2\repository\net\bytebuddy\byte-buddy\1.7.9\byte-buddy-1.7.9.jar;C:\Users\varun.paranganath\.m2\repository\org\apache\commons\commons-exec\1.3\commons-exec-1.3.jar;C:\Users\varun.paranganath\.m2\repository\commons-logging\commons-logging\1.2\commons-logging-1.2.jar;C:\Users\varun.paranganath\.m2\repository\com\google\code\gson\gson\2.8.2\gson-2.8.2.jar;C:\Users\varun.paranganath\.m2\repository\com\google\guava\guava\23.6-jre\guava-23.6-jre.jar;C:\Users\varun.paranganath\.m2\repository\com\google\code\findbugs\jsr305\1.3.9\jsr305-1.3.9.jar;C:\Users\varun.paranganath\.m2\repository\org\checkerframework\checker-compat-qual\2.0.0\checker-compat-qual-2.0.0.jar;C:\Users\varun.paranganath\.m2\repository\com\google\errorprone\error_prone_annotations\2.1.3\error_prone_annotations-2.1.3.jar;C:\Users\varun.paranganath\.m2\repository\com\google\j2objc\j2objc-annotations\1.1\j2objc-annotations-1.1.jar;C:\Users\varun.paranganath\.m2\repository\org\codehaus\mojo\animal-sniffer-annotations\1.14\animal-sniffer-annotations-1.14.jar;C:\Users\varun.paranganath\.m2\repository\org\apache\httpcomponents\httpcore\4.4.6\httpcore-4.4.6.jar;C:\Users\varun.paranganath\.m2\repository\com\squareup\okhttp3\okhttp\3.9.1\okhttp-3.9.1.jar;C:\Users\varun.paranganath\.m2\repository\com\squareup\okio\okio\1.13.0\okio-1.13.0.jar;C:\Users\varun.paranganath\.m2\repository\org\apache\maven\surefire\surefire-testng-utils\2.22.0\surefire-testng-utils-2.22.0.jar;C:\Users\varun.paranganath\.m2\repository\org\apache\maven\surefire\surefire-grouper\2.22.0\surefire-grouper-2.22.0.jar;"/>
    <property name="java.vm.vendor" value="Oracle Corporation"/>
    <property name="sun.arch.data.model" value="64"/>
    <property name="user.variant" value=""/>
    <property name="java.vendor.url" value="http://java.oracle.com/"/>
    <property name="user.timezone" value="Asia/Calcutta"/>
    <property name="java.vm.specification.version" value="1.8"/>
    <property name="os.name" value="Windows 7"/>
    <property name="user.country" value="US"/>
    <property name="sun.java.launcher" value="SUN_STANDARD"/>
    <property name="sun.boot.library.path" value="C:\Program Files\Java\jdk1.8.0_144\jre\bin"/>
    <property name="sun.java.command" value="C:\Users\VARUN~1.PAR\AppData\Local\Temp\surefire3840884414898687915\surefirebooter5849465470069062909.jar C:\Users\varun.paranganath\AppData\Local\Temp\surefire3840884414898687915 2018-12-10T12-26-44_140-jvmRun1 surefire2222483841144270439tmp surefire_0820427562888286950tmp"/>
    <property name="surefire.test.class.path" value="D:\Varun_WorkSpace\Remittance_CIBC_Testsuite\target\test-classes;D:\Varun_WorkSpace\Remittance_CIBC_Testsuite\target\classes;C:\Users\varun.paranganath\.m2\repository\com\codoid\products\fillo\1.18\fillo-1.18.jar;C:\Users\varun.paranganath\.m2\repository\org\apache\poi\poi\3.17\poi-3.17.jar;C:\Users\varun.paranganath\.m2\repository\commons-codec\commons-codec\1.10\commons-codec-1.10.jar;C:\Users\varun.paranganath\.m2\repository\org\apache\commons\commons-collections4\4.1\commons-collections4-4.1.jar;C:\Users\varun.paranganath\.m2\repository\com\oracle\ojdbc14\10.2.0.1.0\ojdbc14-10.2.0.1.0.jar;C:\Users\varun.paranganath\.m2\repository\org\testng\testng\6.9.10\testng-6.9.10.jar;C:\Users\varun.paranganath\.m2\repository\com\beust\jcommander\1.48\jcommander-1.48.jar;C:\Users\varun.paranganath\.m2\repository\org\beanshell\bsh\2.0b4\bsh-2.0b4.jar;C:\Users\varun.paranganath\.m2\repository\org\json\json\20080701\json-20080701.jar;C:\Users\varun.paranganath\.m2\repository\io\rest-assured\rest-assured\3.1.1\rest-assured-3.1.1.jar;C:\Users\varun.paranganath\.m2\repository\org\codehaus\groovy\groovy\2.4.12\groovy-2.4.12.jar;C:\Users\varun.paranganath\.m2\repository\org\codehaus\groovy\groovy-xml\2.4.12\groovy-xml-2.4.12.jar;C:\Users\varun.paranganath\.m2\repository\org\apache\httpcomponents\httpclient\4.5.3\httpclient-4.5.3.jar;C:\Users\varun.paranganath\.m2\repository\org\apache\httpcomponents\httpmime\4.5.1\httpmime-4.5.1.jar;C:\Users\varun.paranganath\.m2\repository\org\hamcrest\hamcrest-core\1.3\hamcrest-core-1.3.jar;C:\Users\varun.paranganath\.m2\repository\org\hamcrest\hamcrest-library\1.3\hamcrest-library-1.3.jar;C:\Users\varun.paranganath\.m2\repository\org\ccil\cowan\tagsoup\tagsoup\1.2.1\tagsoup-1.2.1.jar;C:\Users\varun.paranganath\.m2\repository\io\rest-assured\json-path\3.1.1\json-path-3.1.1.jar;C:\Users\varun.paranganath\.m2\repository\org\codehaus\groovy\groovy-json\2.4.12\groovy-json-2.4.12.jar;C:\Users\varun.paranganath\.m2\repository\io\rest-assured\rest-assured-common\3.1.1\rest-assured-common-3.1.1.jar;C:\Users\varun.paranganath\.m2\repository\io\rest-assured\xml-path\3.1.1\xml-path-3.1.1.jar;C:\Users\varun.paranganath\.m2\repository\org\apache\commons\commons-lang3\3.4\commons-lang3-3.4.jar;C:\Users\varun.paranganath\.m2\repository\javax\xml\bind\jaxb-api\2.2.12\jaxb-api-2.2.12.jar;C:\Users\varun.paranganath\.m2\repository\org\seleniumhq\selenium\selenium-java\3.11.0\selenium-java-3.11.0.jar;C:\Users\varun.paranganath\.m2\repository\org\seleniumhq\selenium\selenium-api\3.11.0\selenium-api-3.11.0.jar;C:\Users\varun.paranganath\.m2\repository\org\seleniumhq\selenium\selenium-chrome-driver\3.11.0\selenium-chrome-driver-3.11.0.jar;C:\Users\varun.paranganath\.m2\repository\org\seleniumhq\selenium\selenium-edge-driver\3.11.0\selenium-edge-driver-3.11.0.jar;C:\Users\varun.paranganath\.m2\repository\org\seleniumhq\selenium\selenium-firefox-driver\3.11.0\selenium-firefox-driver-3.11.0.jar;C:\Users\varun.paranganath\.m2\repository\org\seleniumhq\selenium\selenium-ie-driver\3.11.0\selenium-ie-driver-3.11.0.jar;C:\Users\varun.paranganath\.m2\repository\org\seleniumhq\selenium\selenium-opera-driver\3.11.0\selenium-opera-driver-3.11.0.jar;C:\Users\varun.paranganath\.m2\repository\org\seleniumhq\selenium\selenium-remote-driver\3.11.0\selenium-remote-driver-3.11.0.jar;C:\Users\varun.paranganath\.m2\repository\org\seleniumhq\selenium\selenium-safari-driver\3.11.0\selenium-safari-driver-3.11.0.jar;C:\Users\varun.paranganath\.m2\repository\org\seleniumhq\selenium\selenium-support\3.11.0\selenium-support-3.11.0.jar;C:\Users\varun.paranganath\.m2\repository\net\bytebuddy\byte-buddy\1.7.9\byte-buddy-1.7.9.jar;C:\Users\varun.paranganath\.m2\repository\org\apache\commons\commons-exec\1.3\commons-exec-1.3.jar;C:\Users\varun.paranganath\.m2\repository\commons-logging\commons-logging\1.2\commons-logging-1.2.jar;C:\Users\varun.paranganath\.m2\repository\com\google\code\gson\gson\2.8.2\gson-2.8.2.jar;C:\Users\varun.paranganath\.m2\repository\com\google\guava\guava\23.6-jre\guava-23.6-jre.jar;C:\Users\varun.paranganath\.m2\repository\com\google\code\findbugs\jsr305\1.3.9\jsr305-1.3.9.jar;C:\Users\varun.paranganath\.m2\repository\org\checkerframework\checker-compat-qual\2.0.0\checker-compat-qual-2.0.0.jar;C:\Users\varun.paranganath\.m2\repository\com\google\errorprone\error_prone_annotations\2.1.3\error_prone_annotations-2.1.3.jar;C:\Users\varun.paranganath\.m2\repository\com\google\j2objc\j2objc-annotations\1.1\j2objc-annotations-1.1.jar;C:\Users\varun.paranganath\.m2\repository\org\codehaus\mojo\animal-sniffer-annotations\1.14\animal-sniffer-annotations-1.14.jar;C:\Users\varun.paranganath\.m2\repository\org\apache\httpcomponents\httpcore\4.4.6\httpcore-4.4.6.jar;C:\Users\varun.paranganath\.m2\repository\com\squareup\okhttp3\okhttp\3.9.1\okhttp-3.9.1.jar;C:\Users\varun.paranganath\.m2\repository\com\squareup\okio\okio\1.13.0\okio-1.13.0.jar;C:\Users\varun.paranganath\.m2\repository\org\apache\maven\surefire\surefire-testng-utils\2.22.0\surefire-testng-utils-2.22.0.jar;C:\Users\varun.paranganath\.m2\repository\org\apache\maven\surefire\surefire-grouper\2.22.0\surefire-grouper-2.22.0.jar;"/>
    <property name="sun.cpu.endian" value="little"/>
    <property name="user.home" value="C:\Users\varun.paranganath"/>
    <property name="user.language" value="en"/>
    <property name="java.specification.vendor" value="Oracle Corporation"/>
    <property name="java.home" value="C:\Program Files\Java\jdk1.8.0_144\jre"/>
    <property name="basedir" value="D:\Varun_WorkSpace\Remittance_CIBC_Testsuite"/>
    <property name="file.separator" value="\"/>
    <property name="line.separator" value="&#10;"/>
    <property name="java.vm.specification.vendor" value="Oracle Corporation"/>
    <property name="java.specification.name" value="Java Platform API Specification"/>
    <property name="java.awt.graphicsenv" value="sun.awt.Win32GraphicsEnvironment"/>
    <property name="surefire.real.class.path" value="C:\Users\VARUN~1.PAR\AppData\Local\Temp\surefire3840884414898687915\surefirebooter5849465470069062909.jar"/>
    <property name="sun.boot.class.path" value="C:\Program Files\Java\jdk1.8.0_144\jre\lib\resources.jar;C:\Program Files\Java\jdk1.8.0_144\jre\lib\rt.jar;C:\Program Files\Java\jdk1.8.0_144\jre\lib\sunrsasign.jar;C:\Program Files\Java\jdk1.8.0_144\jre\lib\jsse.jar;C:\Program Files\Java\jdk1.8.0_144\jre\lib\jce.jar;C:\Program Files\Java\jdk1.8.0_144\jre\lib\charsets.jar;C:\Program Files\Java\jdk1.8.0_144\jre\lib\jfr.jar;C:\Program Files\Java\jdk1.8.0_144\jre\classes"/>
    <property name="user.script" value=""/>
    <property name="sun.management.compiler" value="HotSpot 64-Bit Tiered Compilers"/>
    <property name="java.runtime.version" value="1.8.0_144-b01"/>
    <property name="user.name" value="varun.paranganath"/>
    <property name="path.separator" value=";"/>
    <property name="os.version" value="6.1"/>
    <property name="java.endorsed.dirs" value="C:\Program Files\Java\jdk1.8.0_144\jre\lib\endorsed"/>
    <property name="java.runtime.name" value="Java(TM) SE Runtime Environment"/>
    <property name="file.encoding" value="Cp1252"/>
    <property name="java.vm.name" value="Java HotSpot(TM) 64-Bit Server VM"/>
    <property name="localRepository" value="C:\Users\varun.paranganath\.m2\repository"/>
    <property name="java.vendor.url.bug" value="http://bugreport.sun.com/bugreport/"/>
    <property name="java.io.tmpdir" value="C:\Users\VARUN~1.PAR\AppData\Local\Temp\"/>
    <property name="java.version" value="1.8.0_144"/>
    <property name="user.dir" value="D:\Varun_WorkSpace\Remittance_CIBC_Testsuite"/>
    <property name="os.arch" value="amd64"/>
    <property name="java.vm.specification.name" value="Java Virtual Machine Specification"/>
    <property name="java.awt.printerjob" value="sun.awt.windows.WPrinterJob"/>
    <property name="sun.os.patch.level" value="Service Pack 1"/>
    <property name="java.library.path" value="C:\Program Files\Java\jdk1.8.0_144\jre\bin;C:\Windows\Sun\Java\bin;C:\Windows\system32;C:\Windows;C:/Program Files/Java/jre1.8.0_144/bin/server;C:/Program Files/Java/jre1.8.0_144/bin;C:/Program Files/Java/jre1.8.0_144/lib/amd64;D:\app\product\11.2.0\client_1\bin;C:\ProgramData\Oracle\Java\javapath;C:\Program Files (x86)\CA\SC\CAWIN\;C:\Windows\system32;C:\Windows;C:\Windows\System32\Wbem;C:\Windows\System32\WindowsPowerShell\v1.0\;C:\PROGRA~2\CA\SC\CAM\bin;C:\Program Files (x86)\CA\SC\Csam\SockAdapter\bin;C:\Program Files (x86)\CA\DSM\bin;C:\Program Files (x86)\CA\SC\CBB\;C:\Program Files\TortoiseSVN\bin;D:\apache-maven-3.5.4\bin;C:\Program Files\Java\jdk1.8.0_144\bin;C:\Program Files\erl9.2\bin;D:\app\product\11.2.0\client_1\bin;C:\ProgramData\Oracle\Java\javapath;C:\Program Files (x86)\CA\SC\CAWIN\;C:\Windows\system32;C:\Windows;C:\Windows\System32\Wbem;C:\Windows\System32\WindowsPowerShell\v1.0\;C:\PROGRA~2\CA\SC\CAM\bin;C:\Program Files (x86)\CA\SC\Csam\SockAdapter\bin;C:\Program Files (x86)\CA\DSM\bin;C:\Program Files (x86)\CA\SC\CBB\;C:\Program Files\TortoiseSVN\bin;D:\apache-maven-3.5.4\bin;C:\Program Files\Java\jdk1.8.0_144\bin;;D:\eclipse-jee-neon-1a-win32-x86_64\eclipse;;."/>
    <property name="java.vm.info" value="mixed mode"/>
    <property name="java.vendor" value="Oracle Corporation"/>
    <property name="java.vm.version" value="25.144-b01"/>
    <property name="java.ext.dirs" value="C:\Program Files\Java\jdk1.8.0_144\jre\lib\ext;C:\Windows\Sun\Java\lib\ext"/>
    <property name="sun.io.unicode.encoding" value="UnicodeLittle"/>
    <property name="java.class.version" value="52.0"/>
  </properties>
  <testcase name="Scenario_add" classname="Remit_MainController.Execute_Controller_Add_testcases" time="0.272"/>
  <testcase name="Scenario_add" classname="Remit_MainController.Execute_Controller_Add_testcases" time="0"/>
  <testcase name="Scenario_add" classname="Remit_MainController.Execute_Controller_Add_testcases" time="0"/>
  <testcase name="Scenario_add" classname="Remit_MainController.Execute_Controller_Add_testcases" time="0"/>
  <testcase name="Scenario_add" classname="Remit_MainController.Execute_Controller_Add_testcases" time="0"/>
  <testcase name="Scenario_add" classname="Remit_MainController.Execute_Controller_Add_testcases" time="0"/>
  <testcase name="Scenario_add" classname="Remit_MainController.Execute_Controller_Add_testcases" time="0"/>
  <testcase name="Scenario_add" classname="Remit_MainController.Execute_Controller_Add_testcases" time="0"/>
  <testcase name="Scenario_add" classname="Remit_MainController.Execute_Controller_Add_testcases" time="0"/>
  <testcase name="Scenario_add" classname="Remit_MainController.Execute_Controller_Add_testcases" time="0"/>
  <testcase name="Scenario_add" classname="Remit_MainController.Execute_Controller_Add_testcases" time="0"/>
  <testcase name="Scenario_add" classname="Remit_MainController.Execute_Controller_Add_testcases" time="0"/>
  <testcase name="Scenario_add" classname="Remit_MainController.Execute_Controller_Add_testcases" time="0"/>
  <testcase name="Scenario_add" classname="Remit_MainController.Execute_Controller_Add_testcases" time="0"/>
  <testcase name="Scenario_add" classname="Remit_MainController.Execute_Controller_Add_testcases" time="0"/>
  <testcase name="Scenario_add" classname="Remit_MainController.Execute_Controller_Add_testcases" time="0.025"/>
  <testcase name="Scenario_add" classname="Remit_MainController.Execute_Controller_Add_testcases" time="0.001"/>
  <testcase name="Scenario_add" classname="Remit_MainController.Execute_Controller_Add_testcases" time="0"/>
  <testcase name="Scenario_add" classname="Remit_MainController.Execute_Controller_Add_testcases" time="0"/>
  <testcase name="Scenario_add" classname="Remit_MainController.Execute_Controller_Add_testcases" time="0"/>
  <testcase name="Scenario_add" classname="Remit_MainController.Execute_Controller_Add_testcases" time="0"/>
  <testcase name="Scenario_add" classname="Remit_MainController.Execute_Controller_Add_testcases" time="0"/>
  <testcase name="Scenario_add" classname="Remit_MainController.Execute_Controller_Add_testcases" time="0"/>
  <testcase name="Scenario_add" classname="Remit_MainController.Execute_Controller_Add_testcases" time="0"/>
  <testcase name="Scenario_add" classname="Remit_MainController.Execute_Controller_Add_testcases" time="0"/>
  <testcase name="Scenario_add" classname="Remit_MainController.Execute_Controller_Add_testcases" time="0"/>
  <testcase name="Scenario_add" classname="Remit_MainController.Execute_Controller_Add_testcases" time="0"/>
  <testcase name="Scenario_add" classname="Remit_MainController.Execute_Controller_Add_testcases" time="0"/>
  <testcase name="Scenario_add" classname="Remit_MainController.Execute_Controller_Add_testcases" time="0"/>
  <testcase name="Scenario_add" classname="Remit_MainController.Execute_Controller_Add_testcases" time="0"/>
  <testcase name="Scenario_add" classname="Remit_MainController.Execute_Controller_Add_testcases" time="0"/>
  <testcase name="Scenario_add" classname="Remit_MainController.Execute_Controller_Add_testcases" time="0"/>
  <testcase name="Scenario_add" classname="Remit_MainController.Execute_Controller_Add_testcases" time="0"/>
  <testcase name="Scenario_add" classname="Remit_MainController.Execute_Controller_Add_testcases" time="0"/>
  <testcase name="Scenario_add" classname="Remit_MainController.Execute_Controller_Add_testcases" time="0"/>
  <testcase name="Scenario_add" classname="Remit_MainController.Execute_Controller_Add_testcases" time="0"/>
  <testcase name="Scenario_add" classname="Remit_MainController.Execute_Controller_Add_testcases" time="0"/>
  <testcase name="Scenario_add" classname="Remit_MainController.Execute_Controller_Add_testcases" time="0"/>
  <testcase name="Scenario_add" classname="Remit_MainController.Execute_Controller_Add_testcases" time="0"/>
  <testcase name="Scenario_add" classname="Remit_MainController.Execute_Controller_Add_testcases" time="0"/>
  <testcase name="Scenario_add" classname="Remit_MainController.Execute_Controller_Add_testcases" time="0.001"/>
  <testcase name="Scenario_add" classname="Remit_MainController.Execute_Controller_Add_testcases" time="0"/>
  <testcase name="Scenario_add" classname="Remit_MainController.Execute_Controller_Add_testcases" time="0"/>
  <testcase name="Scenario_add" classname="Remit_MainController.Execute_Controller_Add_testcases" time="0"/>
  <testcase name="Scenario_add" classname="Remit_MainController.Execute_Controller_Add_testcases" time="0"/>
  <testcase name="Scenario_add" classname="Remit_MainController.Execute_Controller_Add_testcases" time="0"/>
  <testcase name="Scenario_add" classname="Remit_MainController.Execute_Controller_Add_testcases" time="0"/>
  <testcase name="Scenario_add" classname="Remit_MainController.Execute_Controller_Add_testcases" time="0"/>
  <testcase name="Scenario_add" classname="Remit_MainController.Execute_Controller_Add_testcases" time="0"/>
  <testcase name="Scenario_add" classname="Remit_MainController.Execute_Controller_Add_testcases" time="0"/>
  <testcase name="Scenario_add" classname="Remit_MainController.Execute_Controller_Add_testcases" time="8.774">
    <failure message="dataType field is not found" type="com.codoid.products.exception.FilloException">com.codoid.products.exception.FilloException: dataType field is not found
	at Remit_MainController.Execute_Controller_Add_testcases.Scenario_add(Execute_Controller_Add_testcases.java:41)
</failure>
  </testcase>
  <testcase name="Scenario_Inquiry" classname="Remit_MainController.Execute_Controller_inquiryAPI" time="0.001"/>
  <testcase name="Scenario_Inquiry" classname="Remit_MainController.Execute_Controller_inquiryAPI" time="0"/>
  <testcase name="Scenario_Inquiry" classname="Remit_MainController.Execute_Controller_inquiryAPI" time="0"/>
  <testcase name="Scenario_Inquiry" classname="Remit_MainController.Execute_Controller_inquiryAPI" time="0"/>
  <testcase name="Scenario_Inquiry" classname="Remit_MainController.Execute_Controller_inquiryAPI" time="0"/>
  <testcase name="Scenario_Inquiry" classname="Remit_MainController.Execute_Controller_inquiryAPI" time="0.001"/>
  <testcase name="Scenario_Inquiry" classname="Remit_MainController.Execute_Controller_inquiryAPI" time="0"/>
  <testcase name="Scenario_Inquiry" classname="Remit_MainController.Execute_Controller_inquiryAPI" time="0.001"/>
  <testcase name="Scenario_Inquiry" classname="Remit_MainController.Execute_Controller_inquiryAPI" time="0"/>
  <testcase name="Scenario_Inquiry" classname="Remit_MainController.Execute_Controller_inquiryAPI" time="0.001"/>
  <testcase name="Scenario_Inquiry" classname="Remit_MainController.Execute_Controller_inquiryAPI" time="0"/>
  <testcase name="Scenario_Inquiry" classname="Remit_MainController.Execute_Controller_inquiryAPI" time="0.001"/>
  <testcase name="Scenario_Inquiry" classname="Remit_MainController.Execute_Controller_inquiryAPI" time="0"/>
  <testcase name="Scenario_Inquiry" classname="Remit_MainController.Execute_Controller_inquiryAPI" time="0"/>
  <testcase name="Scenario_Inquiry" classname="Remit_MainController.Execute_Controller_inquiryAPI" time="0.001"/>
  <testcase name="Scenario_Inquiry" classname="Remit_MainController.Execute_Controller_inquiryAPI" time="0.001"/>
  <testcase name="Scenario_Inquiry" classname="Remit_MainController.Execute_Controller_inquiryAPI" time="0.001"/>
  <testcase name="Scenario_Inquiry" classname="Remit_MainController.Execute_Controller_inquiryAPI" time="0"/>
  <testcase name="Scenario_Inquiry" classname="Remit_MainController.Execute_Controller_inquiryAPI" time="0.001"/>
  <testcase name="Scenario_Inquiry" classname="Remit_MainController.Execute_Controller_inquiryAPI" time="0"/>
  <testcase name="Scenario_Inquiry" classname="Remit_MainController.Execute_Controller_inquiryAPI" time="0"/>
  <testcase name="Scenario_Inquiry" classname="Remit_MainController.Execute_Controller_inquiryAPI" time="0"/>
  <testcase name="Scenario_Inquiry" classname="Remit_MainController.Execute_Controller_inquiryAPI" time="0"/>
  <testcase name="Scenario_Inquiry" classname="Remit_MainController.Execute_Controller_inquiryAPI" time="0.001"/>
  <testcase name="Scenario_Inquiry" classname="Remit_MainController.Execute_Controller_inquiryAPI" time="0"/>
  <testcase name="Scenario_Inquiry" classname="Remit_MainController.Execute_Controller_inquiryAPI" time="0"/>
  <testcase name="Scenario_Inquiry" classname="Remit_MainController.Execute_Controller_inquiryAPI" time="0"/>
  <testcase name="Scenario_Inquiry" classname="Remit_MainController.Execute_Controller_inquiryAPI" time="0"/>
  <testcase name="Scenario_Inquiry" classname="Remit_MainController.Execute_Controller_inquiryAPI" time="0"/>
  <testcase name="Scenario_Inquiry" classname="Remit_MainController.Execute_Controller_inquiryAPI" time="0"/>
  <testcase name="Scenario_Inquiry" classname="Remit_MainController.Execute_Controller_inquiryAPI" time="0"/>
  <testcase name="Scenario_Inquiry" classname="Remit_MainController.Execute_Controller_inquiryAPI" time="0"/>
  <testcase name="Scenario_Inquiry" classname="Remit_MainController.Execute_Controller_inquiryAPI" time="0"/>
  <testcase name="Scenario_Inquiry" classname="Remit_MainController.Execute_Controller_inquiryAPI" time="0"/>
  <testcase name="Scenario_Inquiry" classname="Remit_MainController.Execute_Controller_inquiryAPI" time="0.078"/>
  <testcase name="Scenario_Inquiry" classname="Remit_MainController.Execute_Controller_inquiryAPI" time="0"/>
  <testcase name="Scenario_Inquiry" classname="Remit_MainController.Execute_Controller_inquiryAPI" time="0"/>
  <testcase name="Scenario_Inquiry" classname="Remit_MainController.Execute_Controller_inquiryAPI" time="0"/>
  <testcase name="Scenario_Inquiry" classname="Remit_MainController.Execute_Controller_inquiryAPI" time="0"/>
  <testcase name="Scenario_Inquiry" classname="Remit_MainController.Execute_Controller_inquiryAPI" time="0"/>
  <testcase name="Scenario_Inquiry" classname="Remit_MainController.Execute_Controller_inquiryAPI" time="0"/>
  <testcase name="Scenario_Inquiry" classname="Remit_MainController.Execute_Controller_inquiryAPI" time="0"/>
  <testcase name="Scenario_Inquiry" classname="Remit_MainController.Execute_Controller_inquiryAPI" time="0"/>
  <testcase name="Scenario_Inquiry" classname="Remit_MainController.Execute_Controller_inquiryAPI" time="0"/>
  <testcase name="Scenario_Inquiry" classname="Remit_MainController.Execute_Controller_inquiryAPI" time="0.001"/>
  <testcase name="Scenario_Inquiry" classname="Remit_MainController.Execute_Controller_inquiryAPI" time="0"/>
  <testcase name="Scenario_Inquiry" classname="Remit_MainController.Execute_Controller_inquiryAPI" time="0"/>
  <testcase name="Scenario_Inquiry" classname="Remit_MainController.Execute_Controller_inquiryAPI" time="0.001"/>
  <testcase name="Scenario_Inquiry" classname="Remit_MainController.Execute_Controller_inquiryAPI" time="0"/>
  <testcase name="Scenario_Inquiry" classname="Remit_MainController.Execute_Controller_inquiryAPI" time="0"/>
  <testcase name="Scenario_Inquiry" classname="Remit_MainController.Execute_Controller_inquiryAPI" time="0"/>
  <testcase name="Scenario_Modify" classname="Remit_MainController.Execute_Controller_ModifyAPI" time="0.001"/>
  <testcase name="Scenario_Modify" classname="Remit_MainController.Execute_Controller_ModifyAPI" time="0.001"/>
  <testcase name="Scenario_Modify" classname="Remit_MainController.Execute_Controller_ModifyAPI" time="0"/>
  <testcase name="Scenario_Modify" classname="Remit_MainController.Execute_Controller_ModifyAPI" time="0.001"/>
  <testcase name="Scenario_Modify" classname="Remit_MainController.Execute_Controller_ModifyAPI" time="0"/>
  <testcase name="Scenario_Modify" classname="Remit_MainController.Execute_Controller_ModifyAPI" time="0"/>
  <testcase name="Scenario_Modify" classname="Remit_MainController.Execute_Controller_ModifyAPI" time="0"/>
  <testcase name="Scenario_Modify" classname="Remit_MainController.Execute_Controller_ModifyAPI" time="0.001"/>
  <testcase name="Scenario_Modify" classname="Remit_MainController.Execute_Controller_ModifyAPI" time="0.001"/>
  <testcase name="Scenario_Modify" classname="Remit_MainController.Execute_Controller_ModifyAPI" time="0"/>
  <testcase name="Scenario_Modify" classname="Remit_MainController.Execute_Controller_ModifyAPI" time="0.014"/>
  <testcase name="Scenario_Modify" classname="Remit_MainController.Execute_Controller_ModifyAPI" time="0"/>
  <testcase name="Scenario_Modify" classname="Remit_MainController.Execute_Controller_ModifyAPI" time="0"/>
  <testcase name="Scenario_Modify" classname="Remit_MainController.Execute_Controller_ModifyAPI" time="0"/>
  <testcase name="Scenario_Modify" classname="Remit_MainController.Execute_Controller_ModifyAPI" time="0"/>
  <testcase name="Scenario_Modify" classname="Remit_MainController.Execute_Controller_ModifyAPI" time="0"/>
  <testcase name="Scenario_Modify" classname="Remit_MainController.Execute_Controller_ModifyAPI" time="0"/>
  <testcase name="Scenario_Modify" classname="Remit_MainController.Execute_Controller_ModifyAPI" time="0"/>
  <testcase name="Scenario_Modify" classname="Remit_MainController.Execute_Controller_ModifyAPI" time="0"/>
  <testcase name="Scenario_Modify" classname="Remit_MainController.Execute_Controller_ModifyAPI" time="0"/>
  <testcase name="Scenario_Modify" classname="Remit_MainController.Execute_Controller_ModifyAPI" time="0"/>
  <testcase name="Scenario_Modify" classname="Remit_MainController.Execute_Controller_ModifyAPI" time="0"/>
  <testcase name="Scenario_Modify" classname="Remit_MainController.Execute_Controller_ModifyAPI" time="0"/>
  <testcase name="Scenario_Modify" classname="Remit_MainController.Execute_Controller_ModifyAPI" time="0"/>
  <testcase name="Scenario_Modify" classname="Remit_MainController.Execute_Controller_ModifyAPI" time="0"/>
  <testcase name="Scenario_Modify" classname="Remit_MainController.Execute_Controller_ModifyAPI" time="0"/>
  <testcase name="Scenario_Modify" classname="Remit_MainController.Execute_Controller_ModifyAPI" time="0"/>
  <testcase name="Scenario_Modify" classname="Remit_MainController.Execute_Controller_ModifyAPI" time="0"/>
  <testcase name="Scenario_Modify" classname="Remit_MainController.Execute_Controller_ModifyAPI" time="0"/>
  <testcase name="Scenario_Modify" classname="Remit_MainController.Execute_Controller_ModifyAPI" time="0"/>
  <testcase name="Scenario_Modify" classname="Remit_MainController.Execute_Controller_ModifyAPI" time="0.013"/>
  <testcase name="Scenario_Modify" classname="Remit_MainController.Execute_Controller_ModifyAPI" time="0"/>
  <testcase name="Scenario_Modify" classname="Remit_MainController.Execute_Controller_ModifyAPI" time="0"/>
  <testcase name="Scenario_Modify" classname="Remit_MainController.Execute_Controller_ModifyAPI" time="0"/>
  <testcase name="Scenario_Modify" classname="Remit_MainController.Execute_Controller_ModifyAPI" time="0"/>
  <testcase name="Scenario_Modify" classname="Remit_MainController.Execute_Controller_ModifyAPI" time="0"/>
  <testcase name="Scenario_Modify" classname="Remit_MainController.Execute_Controller_ModifyAPI" time="0"/>
  <testcase name="Scenario_Modify" classname="Remit_MainController.Execute_Controller_ModifyAPI" time="0"/>
  <testcase name="Scenario_Modify" classname="Remit_MainController.Execute_Controller_ModifyAPI" time="0"/>
  <testcase name="Scenario_Modify" classname="Remit_MainController.Execute_Controller_ModifyAPI" time="0"/>
  <testcase name="Scenario_Modify" classname="Remit_MainController.Execute_Controller_ModifyAPI" time="0"/>
  <testcase name="Scenario_Modify" classname="Remit_MainController.Execute_Controller_ModifyAPI" time="0"/>
  <testcase name="Scenario_Modify" classname="Remit_MainController.Execute_Controller_ModifyAPI" time="0"/>
  <testcase name="Scenario_Modify" classname="Remit_MainController.Execute_Controller_ModifyAPI" time="0"/>
  <testcase name="Scenario_Modify" classname="Remit_MainController.Execute_Controller_ModifyAPI" time="0"/>
  <testcase name="Scenario_Modify" classname="Remit_MainController.Execute_Controller_ModifyAPI" time="0"/>
  <testcase name="Scenario_Modify" classname="Remit_MainController.Execute_Controller_ModifyAPI" time="0"/>
  <testcase name="Scenario_Modify" classname="Remit_MainController.Execute_Controller_ModifyAPI" time="0"/>
  <testcase name="Scenario_Modify" classname="Remit_MainController.Execute_Controller_ModifyAPI" time="0"/>
  <testcase name="Scenario_Modify" classname="Remit_MainController.Execute_Controller_ModifyAPI" time="0"/>
  <testcase name="Scenario_Modify" classname="Remit_MainController.Execute_Controller_ModifyAPI" time="0"/>
  <testcase name="Scenario_Delete" classname="Remit_MainController.Execute_Controller_DeleteAPI" time="0"/>
  <testcase name="Scenario_Delete" classname="Remit_MainController.Execute_Controller_DeleteAPI" time="0"/>
  <testcase name="Scenario_Delete" classname="Remit_MainController.Execute_Controller_DeleteAPI" time="0"/>
  <testcase name="Scenario_Delete" classname="Remit_MainController.Execute_Controller_DeleteAPI" time="0"/>
  <testcase name="Scenario_Delete" classname="Remit_MainController.Execute_Controller_DeleteAPI" time="0"/>
  <testcase name="Scenario_Delete" classname="Remit_MainController.Execute_Controller_DeleteAPI" time="0"/>
  <testcase name="Scenario_Delete" classname="Remit_MainController.Execute_Controller_DeleteAPI" time="0"/>
  <testcase name="Scenario_Delete" classname="Remit_MainController.Execute_Controller_DeleteAPI" time="0"/>
  <testcase name="Scenario_Delete" classname="Remit_MainController.Execute_Controller_DeleteAPI" time="0"/>
  <testcase name="Scenario_Delete" classname="Remit_MainController.Execute_Controller_DeleteAPI" time="0"/>
  <testcase name="Scenario_Delete" classname="Remit_MainController.Execute_Controller_DeleteAPI" time="0"/>
  <testcase name="Scenario_Delete" classname="Remit_MainController.Execute_Controller_DeleteAPI" time="0"/>
  <testcase name="Scenario_Delete" classname="Remit_MainController.Execute_Controller_DeleteAPI" time="0"/>
  <testcase name="Scenario_Delete" classname="Remit_MainController.Execute_Controller_DeleteAPI" time="0"/>
  <testcase name="Scenario_Delete" classname="Remit_MainController.Execute_Controller_DeleteAPI" time="0"/>
  <testcase name="Scenario_Delete" classname="Remit_MainController.Execute_Controller_DeleteAPI" time="0"/>
  <testcase name="Scenario_Delete" classname="Remit_MainController.Execute_Controller_DeleteAPI" time="0"/>
  <testcase name="Scenario_Delete" classname="Remit_MainController.Execute_Controller_DeleteAPI" time="0"/>
  <testcase name="Scenario_Delete" classname="Remit_MainController.Execute_Controller_DeleteAPI" time="0"/>
  <testcase name="Scenario_Delete" classname="Remit_MainController.Execute_Controller_DeleteAPI" time="0"/>
  <testcase name="Scenario_Delete" classname="Remit_MainController.Execute_Controller_DeleteAPI" time="0"/>
  <testcase name="Scenario_Delete" classname="Remit_MainController.Execute_Controller_DeleteAPI" time="0"/>
  <testcase name="Scenario_Delete" classname="Remit_MainController.Execute_Controller_DeleteAPI" time="0"/>
  <testcase name="Scenario_Delete" classname="Remit_MainController.Execute_Controller_DeleteAPI" time="0"/>
  <testcase name="Scenario_Delete" classname="Remit_MainController.Execute_Controller_DeleteAPI" time="0"/>
  <testcase name="Scenario_Delete" classname="Remit_MainController.Execute_Controller_DeleteAPI" time="0"/>
  <testcase name="Scenario_Delete" classname="Remit_MainController.Execute_Controller_DeleteAPI" time="0"/>
  <testcase name="Scenario_Delete" classname="Remit_MainController.Execute_Controller_DeleteAPI" time="0"/>
  <testcase name="Scenario_Delete" classname="Remit_MainController.Execute_Controller_DeleteAPI" time="0"/>
  <testcase name="Scenario_Delete" classname="Remit_MainController.Execute_Controller_DeleteAPI" time="0"/>
  <testcase name="Scenario_Delete" classname="Remit_MainController.Execute_Controller_DeleteAPI" time="0"/>
  <testcase name="Scenario_Delete" classname="Remit_MainController.Execute_Controller_DeleteAPI" time="0"/>
  <testcase name="Scenario_Delete" classname="Remit_MainController.Execute_Controller_DeleteAPI" time="0"/>
  <testcase name="Scenario_Delete" classname="Remit_MainController.Execute_Controller_DeleteAPI" time="0"/>
  <testcase name="Scenario_Delete" classname="Remit_MainController.Execute_Controller_DeleteAPI" time="0"/>
  <testcase name="Scenario_Delete" classname="Remit_MainController.Execute_Controller_DeleteAPI" time="0"/>
  <testcase name="Scenario_Delete" classname="Remit_MainController.Execute_Controller_DeleteAPI" time="0.001"/>
  <testcase name="Scenario_Delete" classname="Remit_MainController.Execute_Controller_DeleteAPI" time="0"/>
  <testcase name="Scenario_Delete" classname="Remit_MainController.Execute_Controller_DeleteAPI" time="0"/>
  <testcase name="Scenario_Delete" classname="Remit_MainController.Execute_Controller_DeleteAPI" time="0"/>
  <testcase name="Scenario_Delete" classname="Remit_MainController.Execute_Controller_DeleteAPI" time="0"/>
  <testcase name="Scenario_Delete" classname="Remit_MainController.Execute_Controller_DeleteAPI" time="0"/>
  <testcase name="Scenario_Delete" classname="Remit_MainController.Execute_Controller_DeleteAPI" time="0"/>
  <testcase name="Scenario_Delete" classname="Remit_MainController.Execute_Controller_DeleteAPI" time="0"/>
  <testcase name="Scenario_Delete" classname="Remit_MainController.Execute_Controller_DeleteAPI" time="0"/>
  <testcase name="Scenario_Delete" classname="Remit_MainController.Execute_Controller_DeleteAPI" time="0"/>
  <testcase name="Scenario_Delete" classname="Remit_MainController.Execute_Controller_DeleteAPI" time="0"/>
  <testcase name="Scenario_Delete" classname="Remit_MainController.Execute_Controller_DeleteAPI" time="0"/>
  <testcase name="Scenario_Delete" classname="Remit_MainController.Execute_Controller_DeleteAPI" time="0"/>
  <testcase name="Scenario_Delete" classname="Remit_MainController.Execute_Controller_DeleteAPI" time="0"/>
  <testcase name="Scenario_Delete" classname="Remit_MainController.Execute_Controller_DeleteAPI" time="0"/>
</testsuite>